%YAML 1.1
%TAG !u! tag:unity3d.com,2011:
--- !u!114 &11400000
MonoBehaviour:
  m_ObjectHideFlags: 0
  m_CorrespondingSourceObject: {fileID: 0}
  m_PrefabInstance: {fileID: 0}
  m_PrefabAsset: {fileID: 0}
  m_GameObject: {fileID: 0}
  m_Enabled: 1
  m_EditorHideFlags: 0
  m_Script: {fileID: 11500000, guid: 821c367a080a4e84288c86b355d4bf1f, type: 3}
  m_Name: DefaultTerrain
  m_EditorClassIdentifier: 
  autoUpdate: 1
  uniformScale: 2
  useFlatShading: 0
  useFalloff: 0
  meshHeightMultiplayer: 20
  meshHeightCurve:
    serializedVersion: 2
    m_Curve:
    - serializedVersion: 3
      time: 0
      value: 0
      inSlope: 0
      outSlope: 0
      tangentMode: 0
      weightedMode: 0
      inWeight: 0
      outWeight: 0
    - serializedVersion: 3
      time: 0.4111793
      value: 0.0872584
      inSlope: 0.79829246
      outSlope: 0.79829246
      tangentMode: 0
      weightedMode: 0
      inWeight: 0.052445233
      outWeight: 0.058512688
    - serializedVersion: 3
      time: 1
      value: 1
      inSlope: 2
      outSlope: 2
      tangentMode: 0
      weightedMode: 0
      inWeight: 0
      outWeight: 0
    m_PreInfinity: 2
    m_PostInfinity: 2
    m_RotationOrder: 4
