bHaptics - Add On
******************
(includes all of DefaultScene)
CAVE: Don't forget to add the Plugins-Folder into the package!



31.07.2020 
---------------------
Update to Version 1.5.0


13.03.2020 
---------------------
Version 1.4.14

ChangeLog:
- additional functions in the EventManager 
	- Start Vibration Event with the corresponding angle
